<?xml version="1.0" encoding="utf-8"?>
<!-- Generator: Adobe Illustrator 22.0.1, SVG Export Plug-In . SVG Version: 6.00 Build 0)  -->
<svg version="1.1" id="레이어_1" xmlns="http://www.w3.org/2000/svg" xmlns:xlink="http://www.w3.org/1999/xlink" x="0px"
	 y="0px" viewBox="0 0 16 16" style="enable-background:new 0 0 16 16;" xml:space="preserve">
<path d="M13.5,5.8c0-0.1-0.1-0.2-0.2-0.2S13.1,5.5,13,5.5H3c-0.1,0-0.2,0-0.3,0.1C2.6,5.6,2.6,5.7,2.5,5.8c0,0.1,0,0.2,0,0.3
	c0,0.1,0.1,0.2,0.1,0.3l5,5c0,0,0.1,0.1,0.2,0.1c0.1,0,0.1,0,0.2,0c0.1,0,0.1,0,0.2,0c0.1,0,0.1-0.1,0.2-0.1l5-5
	c0.1-0.1,0.1-0.2,0.1-0.3C13.5,6,13.5,5.9,13.5,5.8z"/>
</svg>
