<?xml version="1.0" encoding="utf-8"?>
<!-- Generator: Adobe Illustrator 22.0.1, SVG Export Plug-In . SVG Version: 6.00 Build 0)  -->
<svg version="1.1" id="레이어_1" width = "24" height = "24" fill = "#969ba0" xmlns="http://www.w3.org/2000/svg" xmlns:xlink="http://www.w3.org/1999/xlink" x="0px"
	 y="0px" viewBox="0 0 24 24" style="enable-background:new 0 0 24 24;" xml:space="preserve">
<g>
	<path d="M15,20.5c-0.3,0-0.5-0.1-0.7-0.3l-7.5-7.5c-0.4-0.4-0.4-1,0-1.4l7.5-7.5c0.4-0.4,1-0.4,1.4,0s0.4,1,0,1.4L8.9,12l6.8,6.8
		c0.4,0.4,0.4,1,0,1.4C15.5,20.4,15.3,20.5,15,20.5z"/>
</g>
</svg>
