<?xml version="1.0" encoding="utf-8"?>
<!-- Generator: Adobe Illustrator 22.0.1, SVG Export Plug-In . SVG Version: 6.00 Build 0)  -->
<svg version="1.1" id="레이어_1" xmlns="http://www.w3.org/2000/svg" xmlns:xlink="http://www.w3.org/1999/xlink" x="0px"
	 y="0px" viewBox="0 0 24 24" style="enable-background:new 0 0 24 24;" xml:space="preserve">
<g>
	<path d="M20.3,8.3c0-0.2-0.1-0.4-0.2-0.5l-5.2-5.2c-0.1-0.1-0.2-0.1-0.2-0.2c-0.1,0-0.2-0.1-0.3-0.1h-9c-0.4,0-0.8,0.2-1.1,0.4
		C3.9,3,3.7,3.3,3.7,3.8v16.5c0,0.4,0.2,0.8,0.4,1.1c0.3,0.3,0.7,0.4,1.1,0.4h13.5c0.2,0,0.4,0,0.6-0.1c0.2-0.1,0.3-0.2,0.5-0.3
		c0.1-0.1,0.3-0.3,0.3-0.5c0.1-0.2,0.1-0.4,0.1-0.6L20.3,8.3C20.3,8.3,20.3,8.3,20.3,8.3z M15,4.8l2.7,2.7H15V4.8z M5.2,20.3V3.8
		h8.3v4.5c0,0.4,0.3,0.8,0.8,0.8h4.5l0,11.3H5.2z"/>
	<path d="M15.7,11.9h-1.6v-1.6c0-0.3-0.1-0.6-0.3-0.8c-0.2-0.2-0.5-0.3-0.8-0.3h-2c-0.3,0-0.6,0.1-0.8,0.3C10,9.8,9.9,10,9.9,10.3
		v1.6H8.3c-0.3,0-0.6,0.1-0.8,0.3c-0.2,0.2-0.3,0.5-0.3,0.8v2c0,0.3,0.1,0.6,0.3,0.8C7.8,16,8,16.1,8.3,16.1h1.6v1.6
		c0,0.3,0.1,0.6,0.3,0.8c0.2,0.2,0.5,0.3,0.8,0.3h2c0.3,0,0.6-0.1,0.8-0.3c0.2-0.2,0.3-0.5,0.3-0.8v-1.6h1.6c0.3,0,0.6-0.1,0.8-0.3
		c0.2-0.2,0.3-0.5,0.3-0.8v-2c0-0.3-0.1-0.6-0.3-0.8C16.2,12,16,11.9,15.7,11.9z M15.3,14.6h-1.9c-0.4,0-0.8,0.3-0.8,0.8v1.9h-1.2
		v-1.9c0-0.4-0.3-0.8-0.8-0.8H8.8v-1.2h1.9c0.4,0,0.8-0.3,0.8-0.7v-1.9h1.2v1.9c0,0.4,0.3,0.7,0.8,0.7h1.9V14.6z"/>
</g>
</svg>
