<?xml version="1.0" encoding="utf-8"?>
<!-- Generator: Adobe Illustrator 22.0.1, SVG Export Plug-In . SVG Version: 6.00 Build 0)  -->
<svg version="1.1" id="레이어_1" xmlns="http://www.w3.org/2000/svg" xmlns:xlink="http://www.w3.org/1999/xlink" x="0px"
	 y="0px" width="24" height="24" fill="#c8cdd2" viewBox="0 0 24 24" style="enable-background:new 0 0 24 24;" xml:space="preserve">
<path d="M21.5,20.5l-4.1-4.1c1.3-1.5,2-3.4,2-5.5c0-4.8-3.9-8.6-8.6-8.6s-8.6,3.9-8.6,8.6s3.9,8.6,8.6,8.6c2.1,0,4-0.8,5.5-2
	l4.1,4.1c0.1,0.1,0.3,0.2,0.5,0.2s0.4-0.1,0.5-0.2C21.8,21.2,21.8,20.8,21.5,20.5z M3.8,10.9c0-3.9,3.2-7.1,7.1-7.1S18,6.9,18,10.9
	S14.8,18,10.9,18S3.8,14.8,3.8,10.9z"/>
</svg>
