<?xml version="1.0" encoding="utf-8"?>
<!-- Generator: Adobe Illustrator 22.0.1, SVG Export Plug-In . SVG Version: 6.00 Build 0)  -->
<svg version="1.1" id="레이어_1" xmlns="http://www.w3.org/2000/svg" xmlns:xlink="http://www.w3.org/1999/xlink" x="0px"
	 y="0px" viewBox="0 0 24 24" style="enable-background:new 0 0 24 24;" xml:space="preserve">
<path d="M20.2,15.1V8.3c0-1.4-1.1-2.9-2.9-2.9s-2.9,1.5-2.9,2.9v7.4c0,0.6-0.5,3-3,3c-2.3,0-3.1-1.4-3.3-2.5
	c0.9-0.6,1.3-2.1,1.5-2.8c2.7-1,3.8-3.8,3.8-5.6V3c0-0.4-0.3-0.8-0.7-0.8H11c-0.4,0-0.8,0.3-0.8,0.8s0.3,0.8,0.8,0.8h0.8v4
	c0,1.8-1.2,4.5-4.5,4.5c-3.3,0-4.5-2.8-4.5-4.5v-4h0.8C4,3.8,4.3,3.4,4.3,3S4,2.3,3.6,2.3H2C1.6,2.3,1.3,2.6,1.3,3v4.8
	c0,1.9,1.1,4.6,3.8,5.7c0.2,0.8,0.6,2.3,1.6,2.8c0.2,1.7,1.6,3.9,4.9,3.9c3.4,0,4.5-3,4.5-4.5V8.3c0-0.7,0.5-1.4,1.4-1.4
	s1.4,0.7,1.4,1.4V15c-1.6,0.3-2.7,1.7-2.7,3.3c0,1.9,1.5,3.4,3.4,3.4s3.4-1.5,3.4-3.4C22.8,16.8,21.7,15.4,20.2,15.1z M7.3,13.8
	c0.2,0,0.4,0,0.6,0c-0.2,0.7-0.5,1.1-0.6,1.2c-0.2-0.1-0.4-0.5-0.7-1.2C6.9,13.8,7.1,13.8,7.3,13.8z M19.4,20.3
	c-1,0-1.9-0.9-1.9-1.9s0.8-1.9,1.9-1.9s1.9,0.9,1.9,1.9S20.4,20.3,19.4,20.3z"/>
</svg>
