<?xml version="1.0" encoding="utf-8"?>
<!-- Generator: Adobe Illustrator 22.0.1, SVG Export Plug-In . SVG Version: 6.00 Build 0)  -->
<svg version="1.1" id="레이어_1" xmlns="http://www.w3.org/2000/svg" xmlns:xlink="http://www.w3.org/1999/xlink" x="0px"
	 y="0px" viewBox="0 0 24 24" style="enable-background:new 0 0 24 24;" xml:space="preserve">
<g>
	<path d="M20.3,4.5h-3.8V3.8c0-0.6-0.2-1.2-0.7-1.6c-0.4-0.4-1-0.7-1.6-0.7H9.8c-0.6,0-1.2,0.2-1.6,0.7c-0.4,0.4-0.7,1-0.7,1.6v0.8
		H3.8C3.3,4.5,3,4.8,3,5.3S3.3,6,3.8,6h0.8v13.5c0,0.4,0.2,0.8,0.4,1.1C5.2,20.8,5.6,21,6,21h12c0.4,0,0.8-0.2,1.1-0.4
		s0.4-0.7,0.4-1.1V6h0.8C20.7,6,21,5.7,21,5.3S20.7,4.5,20.3,4.5z M9,3.8c0-0.2,0.1-0.4,0.2-0.5C9.4,3.1,9.5,3,9.8,3h4.5
		c0.2,0,0.4,0.1,0.5,0.2C14.9,3.4,15,3.5,15,3.8v0.8H9V3.8z M18,19.5H6V6h12V19.5z"/>
	<path d="M9.8,9C9.3,9,9,9.3,9,9.8v6c0,0.4,0.3,0.8,0.8,0.8s0.8-0.3,0.8-0.8v-6C10.5,9.3,10.2,9,9.8,9z"/>
	<path d="M14.3,9c-0.4,0-0.8,0.3-0.8,0.8v6c0,0.4,0.3,0.8,0.8,0.8s0.8-0.3,0.8-0.8v-6C15,9.3,14.7,9,14.3,9z"/>
</g>
</svg>
