<?xml version="1.0" encoding="utf-8"?>
<!-- Generator: Adobe Illustrator 22.0.1, SVG Export Plug-In . SVG Version: 6.00 Build 0)  -->
<svg version="1.1" id="레이어_1" xmlns="http://www.w3.org/2000/svg" xmlns:xlink="http://www.w3.org/1999/xlink" x="0px"
	 y="0px" viewBox="0 0 24 24" style="enable-background:new 0 0 24 24;" xml:space="preserve">
<style type="text/css">
	.st0{fill:#C8CDD2;}
</style>
<path class="st0" d="M20.7,16.5c-0.6-1-1.2-2.8-1.2-6V9.8c0-4.2-3.3-7.6-7.4-7.6c-1,0-2,0.2-2.9,0.6C8.3,3.2,7.4,3.7,6.7,4.4
	C6,5.1,5.5,6,5.1,6.9C4.7,7.8,4.5,8.8,4.5,9.8v0.8c0,3.2-0.7,5-1.2,6c-0.1,0.2-0.2,0.5-0.2,0.8c0,0.3,0.1,0.5,0.2,0.8
	c0.1,0.2,0.3,0.4,0.5,0.6c0.2,0.1,0.5,0.2,0.8,0.2h3.7c0,1,0.4,1.9,1.1,2.7s1.6,1.1,2.7,1.1c1,0,1.9-0.4,2.7-1.1s1.1-1.7,1.1-2.7
	h3.7c0.3,0,0.5-0.1,0.7-0.2c0.2-0.1,0.4-0.3,0.5-0.6c0.1-0.2,0.2-0.5,0.2-0.8C20.9,17,20.8,16.7,20.7,16.5z M13.6,20.3
	c-0.8,0.8-2.3,0.8-3.2,0c-0.4-0.4-0.7-1-0.7-1.6h4.5C14.3,19.4,14,19.9,13.6,20.3z M4.6,17.2C5.2,16.1,6,14.1,6,10.5V9.8
	c0,0,0,0,0,0C6,9,6.2,8.2,6.5,7.4c0.3-0.7,0.7-1.4,1.3-2c0.6-0.6,1.2-1,2-1.3c0.7-0.3,1.5-0.4,2.3-0.4c0,0,0,0,0,0
	c3.3,0,5.9,2.8,5.9,6.1v0.7c0,3.6,0.8,5.6,1.4,6.8L4.6,17.2z"/>
</svg>
